…
Species + life stage count

``` r
ticknyc_df |>
  summarise(across(amblyomma_americanum_adult:unknown_unknown, ~sum(., na.rm = TRUE))) |>
  pivot_longer(everything(), names_to = "Species_LifeStage", values_to = "Count") |>
  arrange(desc(Count)) |>
  print() |>
   knitr::kable()
```

    ## # A tibble: 28 × 2
    ##    Species_LifeStage               Count
    ##    <chr>                           <dbl>
    ##  1 amblyomma_americanum_nymph      10026
    ##  2 ixodes_scapularis_nymph          9301
    ##  3 amblyomma_americanum_adult       1949
    ##  4 haemaphysalis_longicornis_nymph  1472
    ##  5 ixodes_scapularis_larva           520
    ##  6 amblyomma_americanum_larva        448
    ##  7 haemaphysalis_longicornis_larva   414
    ##  8 dermacentor_variabilis_adult      261
    ##  9 haemaphysalis_longicornis_adult   136
    ## 10 ixodes_scapularis_adult           102
    ## # ℹ 18 more rows
…
